[gd_resource type="Resource" load_steps=3 format=2]

[ext_resource path="res://core/Achievement.gd" type="Script" id=1]
[ext_resource path="res://sprites/items/troll_right_0.png" type="Texture" id=2]

[resource]
script = ExtResource( 1 )
trigger_on_turn_if = "not 2 laec"
trigger_on_victory_if = ""
image = ExtResource( 2 )
snake_identifier = "troll_fed"
title = "level.LearnMove.no_troll_fed.title"
title_custom = "Nourrir les trolls...  -_-"
